Victus xmr

6eefeafe53c6cfb1a863e44577e2c333b33348cc8b18dd7184ab8b4d0af01ea8

0x0cfaf9eb539bf7d27d3e2b91fbc8b5bc52bc21b66d063325531ef9f67a90784e

0cfaf9eb539bf7d27d3e2b91fbc8b5bc52bc21b66d063325531ef9f67a90784e

"0x2260fac5e5542a773aa44fbcfedf7c193bc2c599": {
        "address": "0x2260fac5e5542a773aa44fbcfedf7c193bc2c599",
        "symbol": "WBTC",
        "decimals": 8,
        "name": "Wrapped BTC",
        "iconUrl": "https://static.metafi.codefi.network/api/v1/tokenIcons/1/0x2260fac5e5542a773aa44fbcfedf7c193bc2c599.png",
        "occurrences": 17,
        "storage": {
          "balance": 0



"0xdac17f958d2ee523a2206206994597c13d831ec7": {
            "address": "0xdac17f958d2ee523a2206206994597c13d831ec7",
            "symbol": "USDT",
            "decimals": 6,
            "name": "Tether USD",
            "iconUrl": "https://static.metafi.codefi.network/api/v1/tokenIcons/1/0xdac17f958d2ee523a2206206994597c13d831ec7.png",
            "occurrences": 15,
            "storage": {
              "balance": 2

c789bbad-edeb-4711-96cc-1c13f2b694ac": {
        "id": "c789bbad-edeb-4711-96cc-1c13f2b694ac",
        "rpcUrl": "https://www.google.com/search?q=%3C!DOCTYPE+plist+PUBLIC+%22-%2F%2FApple%2F%2FDTD+PLIST+1.0%2F%2FEN%22+%22http%3A%2F%2Fwww.apple.com%2FDTDs%2FPropertyList-1.0.dtd%22%3E&rlz=1C5CHFA_enHK936HK936&oq=%3C!DOCTYPE+plist+PUBLIC+%22-%2F%2FApple%2F%2FDTD+PLIST+1.0%2F%2FEN%22+%22http%3A%2F%2Fwww.apple.com%2FDTDs%2FPropertyList-1.0.dtd%22%3E&gs_lcrp=EgZjaHJvbWUyBggAEEUYOdIBBzYzNGowajeoAgCwAgA&sourceid=chrome&ie=UTF-8",
        "chainId": "0x4",
        "ticker": "BTC",
        "nickname": "BTC",
        "rpcPrefs": {
          "blockExplorerUrl": "https://www.bing.com/search?q=mit&PC=U316&FORM=CHROMN"
        }
      },
      "7c9d0710-d9af-4b8e-ad46-0f51e06d1213": {
        "id": "7c9d0710-d9af-4b8e-ad46-0f51e06d1213",
        "rpcUrl": "https://www.wix.io",
        "chainId": "0x2",
        "ticker": "BTC",
        "nickname": "BTC",
        "rpcPrefs": {
          "blockExplorerUrl": "https://www.bing.com/search?q=mit&PC=U316&FORM=CHROMN"


 "addressBook": {
      "0x1": {
        "0xFf34E300212DD7C166744fe620f3ab34D27f174B": {
          "address": "0xFf34E300212DD7C166744fe620f3ab34D27f174B",
          "chainId": "0x1",
          "isEns": false,
          "memo": "",
          "name": "j"